PLab3/Part4/simulation/qsim/Part4.msim.vcd
$comment
	File created using the following command:
		vcd file Part4.msim.vcd -direction
$end
$date
	Fri May 13 17:34:29 2016
$end
$version
	ModelSim Version 10.1d
$end
$timescale
	1ps
$end
$scope module topoPart4_vlg_vec_tst $end
$var reg 1 ! clk $end
$var reg 1 " D $end
$var wire 1 # Qa $end
$var wire 1 $ Qb $end
$var wire 1 % Qc $end
$var wire 1 & sampler $end
$scope module i1 $end
$var wire 1 ' gnd $end
$var wire 1 ( vcc $end
$var wire 1 ) unknown $end
$var tri1 1 * devclrn $end
$var tri1 1 + devpor $end
$var tri1 1 , devoe $end
$var wire 1 - D~combout $end
$var wire 1 . clk~combout $end
$var wire 1 / clk~clkctrl_outclk $end
$var wire 1 0 Qa$latch~combout $end
$var wire 1 1 Qb~reg0feeder_combout $end
$var wire 1 2 Qb~reg0_regout $end
$var wire 1 3 Qc~reg0feeder_combout $end
$var wire 1 4 Qc~reg0_regout $end
$upscope $end
$upscope $end
$enddefinitions $end
#0
$dumpvars
0!
0"
x#
0$
0%
x&
0'
1(
x)
1*
1+
1,
0-
0.
0/
x0
01
02
03
04
$end
#70000
1"
1-
0&
13
11
#100000
1!
1.
1/
1&
10
1#
12
1$
#120000
0"
0-
0&
03
01
00
0#
#140000
1"
1-
1&
13
11
10
1#
#170000
0"
0-
0&
03
01
00
0#
#200000
0!
0.
0/
1&
#210000
1"
1-
0&
13
11
#240000
0"
0-
1&
03
01
#270000
1"
1-
0&
13
11
#290000
0"
0-
1&
03
01
#300000
1!
1.
1/
0&
02
0$
#330000
1"
1-
1&
13
11
10
1#
#350000
0"
0-
0&
03
01
00
0#
#380000
1"
1-
1&
13
11
10
1#
#400000
0!
0.
0/
0&
14
1%
#450000
0"
0-
1&
03
01
#500000
1!
1.
1/
0&
00
0#
#600000
0!
0.
0/
1&
04
0%
#700000
1!
1.
1/
0&
#800000
0!
0.
0/
1&
#900000
1!
1.
1/
0&
