PLab3/Part2/simulation/qsim/part2.msim.vcd
$comment
	File created using the following command:
		vcd file part2.msim.vcd -direction
$end
$date
	Fri May 13 17:13:34 2016
$end
$version
	ModelSim Version 10.1d
$end
$timescale
	1ps
$end
$scope module part2_vlg_vec_tst $end
$var reg 1 ! Clk $end
$var reg 1 " D $end
$var wire 1 # Q $end
$var wire 1 $ QN $end
$var wire 1 % sampler $end
$scope module i1 $end
$var wire 1 & gnd $end
$var wire 1 ' vcc $end
$var wire 1 ( unknown $end
$var tri1 1 ) devclrn $end
$var tri1 1 * devpor $end
$var tri1 1 + devoe $end
$var wire 1 , R_g~combout $end
$var wire 1 - D~combout $end
$var wire 1 . Clk~combout $end
$var wire 1 / S_g~combout $end
$var wire 1 0 Qb~combout $end
$var wire 1 1 Qa~combout $end
$upscope $end
$upscope $end
$enddefinitions $end
#0
$dumpvars
0!
0"
x#
x$
x%
0&
1'
x(
1)
1*
1+
1,
0-
0.
1/
x0
x1
$end
#25000
1"
1-
0%
#40000
1!
1.
1%
0/
11
00
1#
0$
#50000
0"
0-
0%
1/
0,
10
01
1$
0#
#75000
1"
1-
1%
0/
1,
11
00
1#
0$
#80000
0!
0.
0%
1/
#100000
0"
0-
1%
#120000
1!
1.
0%
0,
10
01
1$
0#
#125000
1"
1-
1%
0/
1,
11
00
1#
0$
#150000
0"
0-
0%
1/
0,
10
01
1$
0#
#160000
0!
0.
1%
1,
#175000
1"
1-
0%
#200000
1!
0"
1.
0-
1%
0,
#225000
1"
1-
0%
0/
1,
11
00
1#
0$
#240000
0!
0.
1%
1/
#250000
0"
0-
0%
#275000
1"
1-
1%
#280000
1!
1.
0%
0/
#300000
0"
0-
1%
1/
0,
10
01
1$
0#
#320000
0!
0.
0%
1,
#325000
1"
1-
1%
#350000
0"
0-
0%
#360000
1!
1.
1%
0,
#375000
1"
1-
0%
0/
1,
11
00
1#
0$
#400000
0!
0"
0.
0-
1%
1/
#425000
1"
1-
0%
#440000
1!
1.
1%
0/
#450000
0"
0-
0%
1/
0,
10
01
1$
0#
#475000
1"
1-
1%
0/
1,
11
00
1#
0$
#480000
0!
0.
0%
1/
#500000
0"
0-
1%
#520000
1!
1.
0%
0,
10
01
1$
0#
#525000
1"
1-
1%
0/
1,
11
00
1#
0$
#550000
0"
0-
0%
1/
0,
10
01
1$
0#
#560000
0!
0.
1%
1,
#575000
1"
1-
0%
#600000
1!
0"
1.
0-
1%
0,
#625000
1"
1-
0%
0/
1,
11
00
1#
0$
#640000
0!
0.
1%
1/
#650000
0"
0-
0%
#675000
1"
1-
1%
#680000
1!
1.
0%
0/
#700000
0"
0-
1%
1/
0,
10
01
1$
0#
#720000
0!
0.
0%
1,
#725000
1"
1-
1%
#750000
0"
0-
0%
#760000
1!
1.
1%
0,
#775000
1"
1-
0%
0/
1,
11
00
1#
0$
#800000
0!
0"
0.
0-
1%
1/
#825000
1"
1-
0%
#840000
1!
1.
1%
0/
#850000
0"
0-
0%
1/
0,
10
01
1$
0#
#875000
1"
1-
1%
0/
1,
11
00
1#
0$
#880000
0!
0.
0%
1/
#900000
0"
0-
1%
#920000
1!
1.
0%
0,
10
01
1$
0#
#925000
1"
1-
1%
0/
1,
11
00
1#
0$
#950000
0"
0-
0%
1/
0,
10
01
1$
0#
#960000
0!
0.
1%
1,
#975000
1"
1-
0%
